…
- **Exercise 10:**

Tidy the billboard dataset (built-in)

*	First gather up all the week entries into a row for each week for each song (where there is an entry)

*	Then, convert the week variable to a number and figure out the date corresponding to each week on the chart

*	Sort the data by artist, track and week.  Here are what your first entries should be (formatting can be different):

```{r billboard_results, results = "asis"}
#>  A tibble: 5,307 x 5
#   artist  track                   date.entered  week  rank   date
 #    <chr>   <chr>                   <date>       <int> <dbl>   <date>
 #  1 2 Pac   Baby Don't Cry (Keep... 2000-02-26       1    87 2000-02-26
 #  2 2 Pac   Baby Don't Cry (Keep... 2000-02-26       2    82 2000-03-04
 #  3 2 Pac   Baby Don't Cry (Keep... 2000-02-26       3    72 2000-03-11
 #  4 2 Pac   Baby Don't Cry (Keep... 2000-02-26       4    77 2000-03-18
 #  5 2 Pac   Baby Don't Cry (Keep... 2000-02-26       5    87 2000-03-25
 #  6 2 Pac   Baby Don't Cry (Keep... 2000-02-26       6    94 2000-04-01
 #  7 2 Pac   Baby Don't Cry (Keep... 2000-02-26       7    99 2000-04-08
 #  8 2Ge+her The Hardest Part Of ... 2000-09-02       1    91 2000-09-02
 #  9 2Ge+her The Hardest Part Of ... 2000-09-02       2    87 2000-09-09
 # 10 2Ge+her The Hardest Part Of ... 2000-09-02       3    92 2000-09-16
 # … with 5,297 more rows
```       
…
